INDEX VERSION 1.131+D:\Cursos Internet\Spring\Sprint_API_REST\.metadata\.plugins\org.eclipse.jdt.core
3079123963.index
1113531858.index
518902917.index
2118934624.index
3042799765.index
2196199803.index
696437780.index
2636377174.index
291679152.index
3170178212.index
3251616315.index
3425990876.index
2512313309.index
16308616.index
3959016971.index
2980123182.index
2126094032.index
3835481629.index
2656764723.index
2358522035.index
479998581.index
2447806285.index
4205621760.index
126418461.index
692204511.index
401780850.index
572016003.index
3349813865.index
1832057144.index
1042943521.index
527002884.index
1562816409.index
4188992271.index
1208101273.index
3818658279.index
3640168198.index
2454578849.index
2918543487.index
1108300638.index
2856641952.index
1651941644.index
638108667.index
2302541338.index
3433377586.index
1073728099.index
3833073334.index
3685283018.index
3000606446.index
2309731834.index
34330202.index
1394065994.index
3145076959.index
3017885043.index
2809691500.index
959143812.index
4143589974.index
3063384578.index
1005153856.index
2916753538.index
180576468.index
2172450026.index
565152540.index
1879774999.index
1316007670.index
2825061441.index
1696630273.index
3905572549.index
2906318294.index
209501748.index
3814283582.index
2109675645.index
232482790.index
3495816360.index
3891807052.index
1440726905.index
4066648304.index
2670356604.index
2393969298.index
3036391619.index
229083236.index
878311146.index
3680182660.index
3292628732.index
2299539777.index
1098605311.index
3134622008.index
2355269464.index
2620558413.index
